General tables: totals, crossbreaks
…
      return(tbl_result)
      
    })
  }
  
  return(result)
  
}

split_tables_by_predictor(tbl = totals_only, number_of_predictors = 0)

## [[1]]
## # A tibble: 51 × 7
##    row_type variable var_label                     label                         stat_label stat_0 n    
##    <chr>    <chr>    <chr>                         <chr>                         <glue>     <chr>  <chr>
##  1 label    lrscale  Placement on left right scale Placement on left right scale <NA>       <NA>   1,075
##  2 level    lrscale  Placement on left right scale Left                          %          4.1    <NA> 
##  3 level    lrscale  Placement on left right scale 1                             %          2.0    <NA> 
##  4 level    lrscale  Placement on left right scale 2                             %          5.9    <NA> 
##  5 level    lrscale  Placement on left right scale 3                             %          11.1   <NA> 
##  6 level    lrscale  Placement on left right scale 4                             %          9.5    <NA> 
##  7 level    lrscale  Placement on left right scale 5                             %          35.0   <NA> 
##  8 level    lrscale  Placement on left right scale 6                             %          10.4   <NA> 
##  9 level    lrscale  Placement on left right scale 7                             %          10.2   <NA> 
## 10 level    lrscale  Placement on left right scale 8                             %          6.5    <NA> 
## # ℹ 41 more rows

split_tables_by_predictor(tbl = tbl, number_of_predictors = 2)

## [[1]]
## # A tibble: 56 × 8
##    row_type variable var_label                     label                         stat_label_1 stat_0_1 stat_1_1 stat_2_1
##    <chr>    <chr>    <chr>                         <chr>                         <glue>       <chr>    <chr>    <chr>   
##  1 label    lrscale  Placement on left right scale Placement on left right scale <NA>         <NA>     <NA>     <NA>    
##  2 level    lrscale  Placement on left right scale Left                          %            4.1      3.9      4.3     
##  3 level    lrscale  Placement on left right scale 1                             %            2.0      1.2      2.7     
##  4 level    lrscale  Placement on left right scale 2                             %            5.9      5.3      6.3     
##  5 level    lrscale  Placement on left right scale 3                             %            11.1     11.1     11.1    
##  6 level    lrscale  Placement on left right scale 4                             %            9.5      13.3     6.3     
##  7 level    lrscale  Placement on left right scale 5                             %            35.0     28.1     40.6    
##  8 level    lrscale  Placement on left right scale 6                             %            10.4     12.9     8.3     
##  9 level    lrscale  Placement on left right scale 7                             %            10.2     11.7     9.0     
## 10 level    lrscale  Placement on left right scale 8                             %            6.5      6.6      6.5     
## # ℹ 46 more rows
## 
## [[2]]
## # A tibble: 56 × 9
##    row_type variable var_label                     label                 stat_label_1 stat_0_1 stat_1_2 stat_2_2 stat_3_2
##    <chr>    <chr>    <chr>                         <chr>                 <glue>       <chr>    <chr>    <chr>    <chr>   
##  1 label    lrscale  Placement on left right scale Placement on left ri… <NA>         <NA>     <NA>     <NA>     <NA>    
##  2 level    lrscale  Placement on left right scale Left                  %            4.1      3.7      4.8      3.9     
##  3 level    lrscale  Placement on left right scale 1                     %            2.0      3.7      3.2      1.0     
##  4 level    lrscale  Placement on left right scale 2                     %            5.9      12.9     5.1      4.4     
##  5 level    lrscale  Placement on left right scale 3                     %            11.1     17.8     14.7     7.1     
##  6 level    lrscale  Placement on left right scale 4                     %            9.5      8.0      11.5     8.9     
##  7 level    lrscale  Placement on left right scale 5                     %            35.0     35.0     34.3     35.3    
##  8 level    lrscale  Placement on left right scale 6                     %            10.4     8.0      11.9     10.3    
##  9 level    lrscale  Placement on left right scale 7                     %            10.2     6.7      7.1      12.9    
## 10 level    lrscale  Placement on left right scale 8                     %            6.5      1.8      4.8      8.7     
## # ℹ 46 more rows

split_tables_by_predictor(tbl = tbl_ci, number_of_predictors = identify_number_of_crossbreaks_in_table(tbl_ci))

## [[1]]
## # A tibble: 52 × 11
##    row_type variable var_label                     label    stat_label stat_0 ci_stat_0 stat_1 ci_stat_1 stat_2 ci_stat_2
##    <chr>    <chr>    <chr>                         <chr>    <glue>     <chr>  <glue>    <chr>  <glue>    <chr>  <glue>   
##  1 label    lrscale  Placement on left right scale Placeme… <NA>       <NA>   <NA>      <NA>   <NA>      <NA>   <NA>     
##  2 level    lrscale  Placement on left right scale Left     %          4.1    3.0 - 5.5 3.9    2.4 - 6.1 4.3    2.8 - 6.3
##  3 level    lrscale  Placement on left right scale 1        %          2.0    1.3 - 3.1 1.2    0.5 - 2.8 2.7    1.6 - 4.5
##  4 level    lrscale  Placement on left right scale 2        %          5.9    4.6 - 7.5 5.3    3.6 - 7.8 6.3    4.5 - 8.6
##  5 level    lrscale  Placement on left right scale 3        %          11.1   9.3 - 13  11.1   8.5 - 14  11.1   8.7 - 14 
##  6 level    lrscale  Placement on left right scale 4        %          9.5    7.8 - 11  13.3   11 - 17   6.3    4.5 - 8.6
##  7 level    lrscale  Placement on left right scale 5        %          35.0   32 - 38   28.1   24 - 32   40.6   37 - 45  
##  8 level    lrscale  Placement on left right scale 6        %          10.4   8.7 - 12  12.9   10 - 16   8.3    6.3 - 11 
##  9 level    lrscale  Placement on left right scale 7        %          10.2   8.5 - 12  11.7   9.1 - 15  9.0    6.9 - 12 
## 10 level    lrscale  Placement on left right scale 8        %          6.5    5.1 - 8.2 6.6    4.6 - 9.2 6.5    4.7 - 8.8
## # ℹ 42 more rows
…
make_df(tbl_ci2) 

## Warning: There was 1 warning in `mutate()`.
## ℹ In argument: `stat = fct_recode(...)`.
## Caused by warning:
## ! Unknown levels in `f`: stat_1_2, stat_2_2, stat_3_2

## Warning: There was 1 warning in `mutate()`.
## ℹ In argument: `stat = fct_recode(...)`.
## Caused by warning:
## ! Unknown levels in `f`: stat_1_1, stat_2_1

## [[1]]
## # A tibble: 108 × 9
##    Predictor plevel variable var_label                     label stat_label_1 Est    CI        `Base size`
##    <chr>     <fct>  <chr>    <chr>                         <chr> <glue>       <glue> <glue>    <chr>      
##  1 Gender    Total  lrscale  Placement on left right scale Left  %            4.1    3.0 - 5.5 1,075      
##  2 Gender    Male   lrscale  Placement on left right scale Left  %            3.9    2.4 - 6.1 487        
##  3 Gender    Female lrscale  Placement on left right scale Left  %            4.3    2.8 - 6.3 588        
##  4 Gender    Total  lrscale  Placement on left right scale 1     %            2.0    1.3 - 3.1 1,075      
##  5 Gender    Male   lrscale  Placement on left right scale 1     %            1.2    0.5 - 2.8 487        
##  6 Gender    Female lrscale  Placement on left right scale 1     %            2.7    1.6 - 4.5 588        
##  7 Gender    Total  lrscale  Placement on left right scale 2     %            5.9    4.6 - 7.5 1,075      
##  8 Gender    Male   lrscale  Placement on left right scale 2     %            5.3    3.6 - 7.8 487        
##  9 Gender    Female lrscale  Placement on left right scale 2     %            6.3    4.5 - 8.6 588        
## 10 Gender    Total  lrscale  Placement on left right scale 3     %            11.1   9.3 - 13  1,075      
## # ℹ 98 more rows
## 
## [[2]]
## # A tibble: 144 × 9
##    Predictor plevel variable var_label                     label stat_label_1 Est    CI        `Base size`
##    <chr>     <fct>  <chr>    <chr>                         <chr> <glue>       <glue> <glue>    <chr>      
##  1 Age       Total  lrscale  Placement on left right scale Left  %            4.1    <NA>      1,075      
##  2 Age       15-34  lrscale  Placement on left right scale Left  %            3.7    1.5 - 8.2 163        
##  3 Age       35-54  lrscale  Placement on left right scale Left  %            4.8    2.8 - 8.0 312        
##  4 Age       54+    lrscale  Placement on left right scale Left  %            3.9    2.5 - 5.8 595        
##  5 Age       Total  lrscale  Placement on left right scale 1     %            2.0    <NA>      1,075      
##  6 Age       15-34  lrscale  Placement on left right scale 1     %            3.7    1.5 - 8.2 163        
##  7 Age       35-54  lrscale  Placement on left right scale 1     %            3.2    1.6 - 6.0 312        
##  8 Age       54+    lrscale  Placement on left right scale 1     %            1.0    0.4 - 2.3 595        
##  9 Age       Total  lrscale  Placement on left right scale 2     %            5.9    <NA>      1,075      
## 10 Age       15-34  lrscale  Placement on left right scale 2     %            12.9   8.3 - 19  163        
## # ℹ 134 more rows

Example 2

make_df(totals_only)

## [[1]]
## # A tibble: 44 × 7
##    variable var_label                     label stat_label_1 Level Est   `Base size`
##    <chr>    <chr>                         <chr> <glue>       <chr> <chr> <chr>      
##  1 lrscale  Placement on left right scale Left  %            Total 4.1   1,075      
##  2 lrscale  Placement on left right scale 1     %            Total 2.0   1,075      
##  3 lrscale  Placement on left right scale 2     %            Total 5.9   1,075      
##  4 lrscale  Placement on left right scale 3     %            Total 11.1  1,075      
##  5 lrscale  Placement on left right scale 4     %            Total 9.5   1,075      
##  6 lrscale  Placement on left right scale 5     %            Total 35.0  1,075      
##  7 lrscale  Placement on left right scale 6     %            Total 10.4  1,075      
##  8 lrscale  Placement on left right scale 7     %            Total 10.2  1,075      
##  9 lrscale  Placement on left right scale 8     %            Total 6.5   1,075      
## 10 lrscale  Placement on left right scale 9     %            Total 1.8   1,075      
## # ℹ 34 more rows
…
make_df(tbl)

## Warning: There was 1 warning in `mutate()`.
## ℹ In argument: `stat = fct_recode(...)`.
## Caused by warning:
## ! Unknown levels in `f`: stat_1_2, stat_2_2, stat_3_2

## Warning: There was 1 warning in `mutate()`.
## ℹ In argument: `stat = fct_recode(...)`.
## Caused by warning:
## ! Unknown levels in `f`: stat_1_1, stat_2_1

## [[1]]
## # A tibble: 120 × 8
##    Predictor plevel variable var_label                     label stat_label_1 Est   `Base size`
##    <chr>     <fct>  <chr>    <chr>                         <chr> <glue>       <chr> <chr>      
##  1 Gender    Total  lrscale  Placement on left right scale Left  %            4.1   1,075      
##  2 Gender    Male   lrscale  Placement on left right scale Left  %            3.9   487        
##  3 Gender    Female lrscale  Placement on left right scale Left  %            4.3   588        
##  4 Gender    Total  lrscale  Placement on left right scale 1     %            2.0   1,075      
##  5 Gender    Male   lrscale  Placement on left right scale 1     %            1.2   487        
##  6 Gender    Female lrscale  Placement on left right scale 1     %            2.7   588        
##  7 Gender    Total  lrscale  Placement on left right scale 2     %            5.9   1,075      
##  8 Gender    Male   lrscale  Placement on left right scale 2     %            5.3   487        
##  9 Gender    Female lrscale  Placement on left right scale 2     %            6.3   588        
## 10 Gender    Total  lrscale  Placement on left right scale 3     %            11.1  1,075      
## # ℹ 110 more rows
## 
## [[2]]
## # A tibble: 160 × 8
##    Predictor plevel variable var_label                     label stat_label_1 Est   `Base size`
##    <chr>     <fct>  <chr>    <chr>                         <chr> <glue>       <chr> <chr>      
##  1 Age       Total  lrscale  Placement on left right scale Left  %            4.1   1,075      
##  2 Age       15-34  lrscale  Placement on left right scale Left  %            3.7   163        
##  3 Age       35-54  lrscale  Placement on left right scale Left  %            4.8   312        
##  4 Age       54+    lrscale  Placement on left right scale Left  %            3.9   595        
##  5 Age       Total  lrscale  Placement on left right scale 1     %            2.0   1,075      
##  6 Age       15-34  lrscale  Placement on left right scale 1     %            3.7   163        
##  7 Age       35-54  lrscale  Placement on left right scale 1     %            3.2   312        
##  8 Age       54+    lrscale  Placement on left right scale 1     %            1.0   595        
##  9 Age       Total  lrscale  Placement on left right scale 2     %            5.9   1,075      
## 10 Age       15-34  lrscale  Placement on left right scale 2     %            12.9  163        
## # ℹ 150 more rows
